
%zadanie 1
 >>a=h/(2*pi)

%zadanie 2
 >>y=sin((pi()/6)/exp(1))

%zadanie 3
 a= hex2dec('00123d3');
>> b= 2.455e23;
>> c=a/b


%zadanie 4
>>sqrt(exp(1)-pi)

%zadanie5
a=first_step=pi*1E10;
b=secund_step=floor(a);
c=a-b;
d=c*10;
end=floor(d)

%zadanie 6
numdays=datenum('28/04/1999')-datenum('13/10/2019')



%zadanie 7
promien_z=6371;
>> f=exp(sqrt(7)/2-(log(promien_z/10^5)));
>> t=hex2dec('aab');

 
>> wynik=atan(f/t)

%zadanie 8
 >>avogardo=6.0221e23/1000;
>> wynik=9/5*avogardo



%zadanie 9

carbon12=2/9*wynik;
>> carbon13=1/100*carbon12;
>> promile=(carbon13/carbon12)*1000